PRISM
=====

Version: 4.3
Date: Tue Aug 02 12:38:09 BST 2016
Hostname: eglinton
Memory limits: cudd=1g, java(heap)=981.5m
Command line: prism uav_sim_ft_mdp.prism -s uav_mdp.props -const 'Basex=1,Basey=0,Depotx=2,Depoty=3,Objx1=2,Objy1=0,Objx2=3,Objy2=1,'

Parsing model file "uav_sim_ft_mdp.prism"...

Parsing properties file "uav_mdp.props"...

18 properties:
(1) Pmax=? [ F "MissionSuccessful" ]
(2) Pmin=? [ F "MissionSuccessful" ]
(3) Pmax=? [ F "MissionTimeUp" ]
(4) Pmin=? [ F "MissionTimeUp" ]
(5) Pmax=? [ F "Crash" ]
(6) Pmin=? [ F "Crash" ]
(7) Pmax=? [ F "AllAreaSearched" ]
(8) Pmin=? [ F "AllAreaSearched" ]
(9) Pmax=? [ F "MissionTimeUp"|"AllAreaSearched"|"Crash" ]
(10) Pmin=? [ F "MissionTimeUp"|"AllAreaSearched"|"Crash" ]
(11) R{"drop"}max=? [ F "deadlock" ]
(12) R{"drop"}min=? [ F "deadlock" ]
(13) R{"charge"}max=? [ F "deadlock" ]
(14) R{"charge"}min=? [ F "deadlock" ]
(15) R{"time"}max=? [ F "deadlock" ]
(16) R{"time"}min=? [ F "deadlock" ]
(17) R{"success"}max=? [ F "deadlock" ]/Pmin=? [ F "MissionSuccessful" ]
(18) R{"success"}min=? [ F "deadlock" ]/Pmax=? [ F "MissionSuccessful" ]

Type:        MDP
Modules:     Obj Move Robot T 
Variables:   NoOfObjs posx posy s1 retx rety b t c 

---------------------------------------------------------------------

Model checking: Pmax=? [ F "MissionSuccessful" ]
Model constants: Basex=1,Basey=0,Depotx=2,Depoty=3,Objx1=2,Objy1=0,Objx2=3,Objy2=1

Building model...
Model constants: Basex=1,Basey=0,Depotx=2,Depoty=3,Objx1=2,Objy1=0,Objx2=3,Objy2=1

Warning: Guard for command 7 of module "Move" is never satisfied.

Warning: Guard for command 8 of module "Move" is never satisfied.

Warning: Guard for command 9 of module "Move" is never satisfied.

Warning: Guard for command 7 of module "Robot" is never satisfied.

Warning: Update 2 of command 3 of module "Robot" doesn't do anything ("(s1'=13)", line 249, column 44)

Warning: Update 2 of command 27 of module "T" doesn't do anything ("(c'=1)", line 372, column 108)

Warning: Guard for command 28 of module "T" is never satisfied.

Warning: Update 2 of command 9 of module "T" doesn't do anything ("(c'=1)", line 349, column 112)

Warning: Guard for command 10 of module "T" is never satisfied.

Warning: Update 2 of command 51 of module "T" doesn't do anything ("(c'=1)", line 403, column 113)

Warning: Guard for command 52 of module "T" is never satisfied.

Computing reachable states...

Reachability (BFS): 81 iterations in 1.16 seconds (average 0.014370, setup 0.00)

Time for model construction: 2.784 seconds.

Warning: Deadlocks detected and fixed in 1 states

Type:        MDP
States:      229604 (1 initial)
Transitions: 597731
Choices:     300044

Transition matrix: 174811 nodes (76 terminal), 597731 minterms, vars: 34r/34c/18nd

Prob0A: 47 iterations in 0.36 seconds (average 0.007574, setup 0.00)

Prob1E: 4 iterations in 0.05 seconds (average 0.013000, setup 0.00)

yes = 953, no = 195303, maybe = 33348

Computing remaining probabilities...
Engine: Sparse

Building sparse matrix... [n=229604, nc=58567, nnz=167926, k=2] [2.2 MB]
Creating vector for yes... [1.8 MB]
Allocating iteration vectors... [2 x 1.8 MB]
TOTAL: [7.5 MB]

Starting iterations...

Iterative method: 86 iterations in 0.40 seconds (average 0.001721, setup 0.25)

Value in the initial state: 0.9825178532145722

Time for model checking: 0.829 seconds.

Result: 0.9825178532145722 (value in the initial state)

---------------------------------------------------------------------

Model checking: Pmin=? [ F "MissionSuccessful" ]
Model constants: Basex=1,Basey=0,Depotx=2,Depoty=3,Objx1=2,Objy1=0,Objx2=3,Objy2=1

Prob0E: 49 iterations in 0.42 seconds (average 0.008490, setup 0.00)

Prob1A: 3 iterations in 0.05 seconds (average 0.016000, setup 0.00)

yes = 953, no = 200645, maybe = 28006

Computing remaining probabilities...
Engine: Sparse

Building sparse matrix... [n=229604, nc=49026, nnz=140000, k=2] [1.9 MB]
Creating vector for yes... [1.8 MB]
Allocating iteration vectors... [2 x 1.8 MB]
TOTAL: [7.1 MB]

Starting iterations...

Iterative method: 79 iterations in 0.32 seconds (average 0.001570, setup 0.19)

Value in the initial state: 0.8250705250335967

Time for model checking: 0.807 seconds.

Result: 0.8250705250335967 (value in the initial state)

---------------------------------------------------------------------

Model checking: Pmax=? [ F "MissionTimeUp" ]
Model constants: Basex=1,Basey=0,Depotx=2,Depoty=3,Objx1=2,Objy1=0,Objx2=3,Objy2=1

Prob0A: 56 iterations in 0.62 seconds (average 0.011143, setup 0.00)

Prob1E: 4 iterations in 0.04 seconds (average 0.011000, setup 0.00)

yes = 456, no = 142803, maybe = 86345

Computing remaining probabilities...
Engine: Sparse

Building sparse matrix... [n=229604, nc=147111, nnz=405469, k=4] [5.0 MB]
Creating vector for yes... [1.8 MB]
Allocating iteration vectors... [2 x 1.8 MB]
TOTAL: [10.3 MB]

Starting iterations...

Iterative method: 90 iterations in 0.48 seconds (average 0.002089, setup 0.29)

Value in the initial state: 6.996093656305564E-4

Time for model checking: 1.18 seconds.

Result: 6.996093656305564E-4 (value in the initial state)

---------------------------------------------------------------------

Model checking: Pmin=? [ F "MissionTimeUp" ]
Model constants: Basex=1,Basey=0,Depotx=2,Depoty=3,Objx1=2,Objy1=0,Objx2=3,Objy2=1

Prob0E: 63 iterations in 0.67 seconds (average 0.010603, setup 0.00)

Prob1A: 3 iterations in 0.04 seconds (average 0.014667, setup 0.00)

yes = 456, no = 143179, maybe = 85969

Computing remaining probabilities...
Engine: Sparse

Building sparse matrix... [n=229604, nc=146435, nnz=404121, k=4] [5.0 MB]
Creating vector for yes... [1.8 MB]
Allocating iteration vectors... [2 x 1.8 MB]
TOTAL: [10.2 MB]

Starting iterations...

Iterative method: 103 iterations in 0.46 seconds (average 0.002058, setup 0.25)

Value in the initial state: 1.471295812415817E-6

Time for model checking: 1.212 seconds.

Result: 1.471295812415817E-6 (value in the initial state)

---------------------------------------------------------------------

Model checking: Pmax=? [ F "Crash" ]
Model constants: Basex=1,Basey=0,Depotx=2,Depoty=3,Objx1=2,Objy1=0,Objx2=3,Objy2=1

Prob0A: 3 iterations in 0.09 seconds (average 0.030667, setup 0.00)

Prob1E: 184 iterations in 2.61 seconds (average 0.014196, setup 0.00)

yes = 112549, no = 2629, maybe = 114426

Computing remaining probabilities...
Engine: Sparse

Building sparse matrix... [n=229604, nc=184866, nnz=482553, k=4] [5.9 MB]
Creating vector for yes... [1.8 MB]
Allocating iteration vectors... [2 x 1.8 MB]
TOTAL: [11.2 MB]

Starting iterations...

Iterative method: 86 iterations in 0.59 seconds (average 0.002651, setup 0.36)

Value in the initial state: 0.030777261726469832

Time for model checking: 3.346 seconds.

Result: 0.030777261726469832 (value in the initial state)

---------------------------------------------------------------------

Model checking: Pmin=? [ F "Crash" ]
Model constants: Basex=1,Basey=0,Depotx=2,Depoty=3,Objx1=2,Objy1=0,Objx2=3,Objy2=1

Prob0E: 3 iterations in 0.06 seconds (average 0.020000, setup 0.00)

Prob1A: 44 iterations in 0.50 seconds (average 0.011364, setup 0.00)

yes = 112549, no = 2629, maybe = 114426

Computing remaining probabilities...
Engine: Sparse

Building sparse matrix... [n=229604, nc=184866, nnz=482553, k=4] [5.9 MB]
Creating vector for yes... [1.8 MB]
Allocating iteration vectors... [2 x 1.8 MB]
TOTAL: [11.2 MB]

Starting iterations...

Iterative method: 82 iterations in 0.44 seconds (average 0.002195, setup 0.26)

Value in the initial state: 0.015435482053319847

Time for model checking: 1.025 seconds.

Result: 0.015435482053319847 (value in the initial state)

---------------------------------------------------------------------

Model checking: Pmax=? [ F "AllAreaSearched" ]
Model constants: Basex=1,Basey=0,Depotx=2,Depoty=3,Objx1=2,Objy1=0,Objx2=3,Objy2=1

Prob0A: 61 iterations in 0.54 seconds (average 0.008852, setup 0.00)

Prob1E: 4 iterations in 0.05 seconds (average 0.013000, setup 0.00)

yes = 1219, no = 182579, maybe = 45806

Computing remaining probabilities...
Engine: Sparse

Building sparse matrix... [n=229604, nc=67487, nnz=172630, k=2] [2.3 MB]
Creating vector for yes... [1.8 MB]
Allocating iteration vectors... [2 x 1.8 MB]
TOTAL: [7.5 MB]

Starting iterations...

Iterative method: 88 iterations in 0.33 seconds (average 0.001682, setup 0.18)

Value in the initial state: 0.14809793553458203

Time for model checking: 0.938 seconds.

Result: 0.14809793553458203 (value in the initial state)

---------------------------------------------------------------------

Model checking: Pmin=? [ F "AllAreaSearched" ]
Model constants: Basex=1,Basey=0,Depotx=2,Depoty=3,Objx1=2,Objy1=0,Objx2=3,Objy2=1

Prob0E: 64 iterations in 0.47 seconds (average 0.007313, setup 0.00)

Prob1A: 3 iterations in 0.04 seconds (average 0.014667, setup 0.00)

yes = 1219, no = 187977, maybe = 40408

Computing remaining probabilities...
Engine: Sparse

Building sparse matrix... [n=229604, nc=58342, nnz=146963, k=2] [2.0 MB]
Creating vector for yes... [1.8 MB]
Allocating iteration vectors... [2 x 1.8 MB]
TOTAL: [7.2 MB]

Starting iterations...

Iterative method: 92 iterations in 0.28 seconds (average 0.001478, setup 0.14)

Value in the initial state: 0.0017436346700488434

Time for model checking: 0.806 seconds.

Result: 0.0017436346700488434 (value in the initial state)

---------------------------------------------------------------------

Model checking: Pmax=? [ F "MissionTimeUp"|"AllAreaSearched"|"Crash" ]
Model constants: Basex=1,Basey=0,Depotx=2,Depoty=3,Objx1=2,Objy1=0,Objx2=3,Objy2=1

Prob0A: 3 iterations in 0.10 seconds (average 0.033333, setup 0.00)

Prob1E: 192 iterations in 2.42 seconds (average 0.012583, setup 0.00)

yes = 200644, no = 954, maybe = 28006

Computing remaining probabilities...
Engine: Sparse

Building sparse matrix... [n=229604, nc=49026, nnz=140000, k=2] [1.9 MB]
Creating vector for yes... [1.8 MB]
Allocating iteration vectors... [2 x 1.8 MB]
TOTAL: [7.1 MB]

Starting iterations...

Iterative method: 74 iterations in 0.31 seconds (average 0.001514, setup 0.20)

Value in the initial state: 0.174929358807877

Time for model checking: 2.85 seconds.

Result: 0.174929358807877 (value in the initial state)

---------------------------------------------------------------------

Model checking: Pmin=? [ F "MissionTimeUp"|"AllAreaSearched"|"Crash" ]
Model constants: Basex=1,Basey=0,Depotx=2,Depoty=3,Objx1=2,Objy1=0,Objx2=3,Objy2=1

Prob0E: 3 iterations in 0.05 seconds (average 0.016000, setup 0.00)

Prob1A: 47 iterations in 0.42 seconds (average 0.009021, setup 0.00)

yes = 195302, no = 954, maybe = 33348

Computing remaining probabilities...
Engine: Sparse

Building sparse matrix... [n=229604, nc=58567, nnz=167926, k=2] [2.2 MB]
Creating vector for yes... [1.8 MB]
Allocating iteration vectors... [2 x 1.8 MB]
TOTAL: [7.5 MB]

Starting iterations...

Iterative method: 85 iterations in 0.31 seconds (average 0.001600, setup 0.18)

Value in the initial state: 0.017481380652764302

Time for model checking: 0.808 seconds.

Result: 0.017481380652764302 (value in the initial state)

---------------------------------------------------------------------

Model checking: R{"drop"}max=? [ F "deadlock" ]
Model constants: Basex=1,Basey=0,Depotx=2,Depoty=3,Objx1=2,Objy1=0,Objx2=3,Objy2=1

Prob0E: 4 iterations in 0.07 seconds (average 0.017000, setup 0.00)

Prob1A: 1 iterations in 0.01 seconds (average 0.008000, setup 0.00)

goal = 1, inf = 0, maybe = 229603

Computing remaining rewards...
Engine: Sparse

Building sparse matrix (transitions)... [n=229604, nc=300043, nnz=597730, k=4] [8.9 MB]
Building sparse matrix (transition rewards)... [n=229604, nc=300043, nnz=0, k=4] [2.0 MB]
Creating vector for state rewards... [1.8 MB]
Creating vector for inf... [1.8 MB]
Allocating iteration vectors... [2 x 1.8 MB]
TOTAL: [17.9 MB]

Starting iterations...

Iterative method: 82 iterations in 0.69 seconds (average 0.003366, setup 0.42)

Value in the initial state: 0.21135583665087637

Time for model checking: 0.784 seconds.

Result: 0.21135583665087637 (value in the initial state)

---------------------------------------------------------------------

Model checking: R{"drop"}min=? [ F "deadlock" ]
Model constants: Basex=1,Basey=0,Depotx=2,Depoty=3,Objx1=2,Objy1=0,Objx2=3,Objy2=1

Prob0A: 4 iterations in 0.04 seconds (average 0.009000, setup 0.00)

Prob1E: 5 iterations in 0.04 seconds (average 0.008800, setup 0.00)

Warning: PRISM hasn't checked for zero-reward loops.
Your minimum rewards may be too low...

goal = 1, inf = 0, maybe = 229603

Computing remaining rewards...
Engine: Sparse

Building sparse matrix (transitions)... [n=229604, nc=300043, nnz=597730, k=4] [8.9 MB]
Building sparse matrix (transition rewards)... [n=229604, nc=300043, nnz=0, k=4] [2.0 MB]
Creating vector for state rewards... [1.8 MB]
Creating vector for inf... [1.8 MB]
Allocating iteration vectors... [2 x 1.8 MB]
TOTAL: [17.9 MB]

Starting iterations...

Iterative method: 73 iterations in 0.66 seconds (average 0.004493, setup 0.33)

Value in the initial state: 0.187554070423574

Time for model checking: 0.745 seconds.

Result: 0.187554070423574 (value in the initial state)

---------------------------------------------------------------------

Model checking: R{"charge"}max=? [ F "deadlock" ]
Model constants: Basex=1,Basey=0,Depotx=2,Depoty=3,Objx1=2,Objy1=0,Objx2=3,Objy2=1

Prob0E: 4 iterations in 0.03 seconds (average 0.007000, setup 0.00)

Prob1A: 1 iterations in 0.00 seconds (average 0.004000, setup 0.00)

goal = 1, inf = 0, maybe = 229603

Computing remaining rewards...
Engine: Sparse

Building sparse matrix (transitions)... [n=229604, nc=300043, nnz=597730, k=4] [8.9 MB]
Building sparse matrix (transition rewards)... [n=229604, nc=300043, nnz=6458, k=4] [2.1 MB]
Creating vector for state rewards... [1.8 MB]
Creating vector for inf... [1.8 MB]
Allocating iteration vectors... [2 x 1.8 MB]
TOTAL: [18.0 MB]

Starting iterations...

Iterative method: 79 iterations in 0.59 seconds (average 0.003342, setup 0.33)

Value in the initial state: 0.29295603762404315

Time for model checking: 0.639 seconds.

Result: 0.29295603762404315 (value in the initial state)

---------------------------------------------------------------------

Model checking: R{"charge"}min=? [ F "deadlock" ]
Model constants: Basex=1,Basey=0,Depotx=2,Depoty=3,Objx1=2,Objy1=0,Objx2=3,Objy2=1

Prob0A: 4 iterations in 0.02 seconds (average 0.006000, setup 0.00)

Prob1E: 5 iterations in 0.04 seconds (average 0.008800, setup 0.00)

Warning: PRISM hasn't checked for zero-reward loops.
Your minimum rewards may be too low...

goal = 1, inf = 0, maybe = 229603

Computing remaining rewards...
Engine: Sparse

Building sparse matrix (transitions)... [n=229604, nc=300043, nnz=597730, k=4] [8.9 MB]
Building sparse matrix (transition rewards)... [n=229604, nc=300043, nnz=6458, k=4] [2.1 MB]
Creating vector for state rewards... [1.8 MB]
Creating vector for inf... [1.8 MB]
Allocating iteration vectors... [2 x 1.8 MB]
TOTAL: [18.0 MB]

Starting iterations...

Iterative method: 88 iterations in 0.62 seconds (average 0.003409, setup 0.32)

Value in the initial state: 0.023354554699513943

Time for model checking: 0.709 seconds.

Result: 0.023354554699513943 (value in the initial state)

---------------------------------------------------------------------

Model checking: R{"time"}max=? [ F "deadlock" ]
Model constants: Basex=1,Basey=0,Depotx=2,Depoty=3,Objx1=2,Objy1=0,Objx2=3,Objy2=1

Prob0E: 4 iterations in 0.03 seconds (average 0.007000, setup 0.00)

Prob1A: 1 iterations in 0.00 seconds (average 0.004000, setup 0.00)

goal = 1, inf = 0, maybe = 229603

Computing remaining rewards...
Engine: Sparse

Building sparse matrix (transitions)... [n=229604, nc=300043, nnz=597730, k=4] [8.9 MB]
Building sparse matrix (transition rewards)... [n=229604, nc=300043, nnz=115176, k=4] [3.3 MB]
Creating vector for state rewards... [1.8 MB]
Creating vector for inf... [1.8 MB]
Allocating iteration vectors... [2 x 1.8 MB]
TOTAL: [19.2 MB]

Starting iterations...

Iterative method: 88 iterations in 0.67 seconds (average 0.003455, setup 0.37)

Value in the initial state: 169.73961130855196

Time for model checking: 0.717 seconds.

Result: 169.73961130855196 (value in the initial state)

---------------------------------------------------------------------

Model checking: R{"time"}min=? [ F "deadlock" ]
Model constants: Basex=1,Basey=0,Depotx=2,Depoty=3,Objx1=2,Objy1=0,Objx2=3,Objy2=1

Prob0A: 4 iterations in 0.02 seconds (average 0.006000, setup 0.00)

Prob1E: 5 iterations in 0.05 seconds (average 0.009600, setup 0.00)

Warning: PRISM hasn't checked for zero-reward loops.
Your minimum rewards may be too low...

goal = 1, inf = 0, maybe = 229603

Computing remaining rewards...
Engine: Sparse

Building sparse matrix (transitions)... [n=229604, nc=300043, nnz=597730, k=4] [8.9 MB]
Building sparse matrix (transition rewards)... [n=229604, nc=300043, nnz=115176, k=4] [3.3 MB]
Creating vector for state rewards... [1.8 MB]
Creating vector for inf... [1.8 MB]
Allocating iteration vectors... [2 x 1.8 MB]
TOTAL: [19.2 MB]

Starting iterations...

Iterative method: 92 iterations in 0.68 seconds (average 0.003391, setup 0.37)

Value in the initial state: 85.6152074396503

Time for model checking: 0.772 seconds.

Result: 85.6152074396503 (value in the initial state)

---------------------------------------------------------------------

Model checking: R{"success"}max=? [ F "deadlock" ]/Pmin=? [ F "MissionSuccessful" ]
Model constants: Basex=1,Basey=0,Depotx=2,Depoty=3,Objx1=2,Objy1=0,Objx2=3,Objy2=1

Prob0E: 4 iterations in 0.03 seconds (average 0.007000, setup 0.00)

Prob1A: 1 iterations in 0.00 seconds (average 0.004000, setup 0.00)

goal = 1, inf = 0, maybe = 229603

Computing remaining rewards...
Engine: Sparse

Building sparse matrix (transitions)... [n=229604, nc=300043, nnz=597730, k=4] [8.9 MB]
Building sparse matrix (transition rewards)... [n=229604, nc=300043, nnz=1878, k=4] [2.0 MB]
Creating vector for state rewards... [1.8 MB]
Creating vector for inf... [1.8 MB]
Allocating iteration vectors... [2 x 1.8 MB]
TOTAL: [17.9 MB]

Starting iterations...

Iterative method: 88 iterations in 0.61 seconds (average 0.003318, setup 0.32)

Prob0E: 49 iterations in 0.39 seconds (average 0.007918, setup 0.00)

Prob1A: 3 iterations in 0.04 seconds (average 0.014667, setup 0.00)

yes = 953, no = 200645, maybe = 28006

Computing remaining probabilities...
Engine: Sparse

Building sparse matrix... [n=229604, nc=49026, nnz=140000, k=2] [1.9 MB]
Creating vector for yes... [1.8 MB]
Allocating iteration vectors... [2 x 1.8 MB]
TOTAL: [7.1 MB]

Starting iterations...

Iterative method: 79 iterations in 0.27 seconds (average 0.001468, setup 0.16)

Value in the initial state: 201.58180139086238

Time for model checking: 1.391 seconds.

Result: 201.58180139086238 (value in the initial state)

---------------------------------------------------------------------

Model checking: R{"success"}min=? [ F "deadlock" ]/Pmax=? [ F "MissionSuccessful" ]
Model constants: Basex=1,Basey=0,Depotx=2,Depoty=3,Objx1=2,Objy1=0,Objx2=3,Objy2=1

Prob0A: 4 iterations in 0.06 seconds (average 0.014000, setup 0.00)

Prob1E: 5 iterations in 0.04 seconds (average 0.008800, setup 0.00)

Warning: PRISM hasn't checked for zero-reward loops.
Your minimum rewards may be too low...

goal = 1, inf = 0, maybe = 229603

Computing remaining rewards...
Engine: Sparse

Building sparse matrix (transitions)... [n=229604, nc=300043, nnz=597730, k=4] [8.9 MB]
Building sparse matrix (transition rewards)... [n=229604, nc=300043, nnz=1878, k=4] [2.0 MB]
Creating vector for state rewards... [1.8 MB]
Creating vector for inf... [1.8 MB]
Allocating iteration vectors... [2 x 1.8 MB]
TOTAL: [17.9 MB]

Starting iterations...

Iterative method: 85 iterations in 0.63 seconds (average 0.003294, setup 0.35)

Prob0A: 47 iterations in 0.35 seconds (average 0.007404, setup 0.00)

Prob1E: 4 iterations in 0.05 seconds (average 0.012000, setup 0.00)

yes = 953, no = 195303, maybe = 33348

Computing remaining probabilities...
Engine: Sparse

Building sparse matrix... [n=229604, nc=58567, nnz=167926, k=2] [2.2 MB]
Creating vector for yes... [1.8 MB]
Allocating iteration vectors... [2 x 1.8 MB]
TOTAL: [7.5 MB]

Starting iterations...

Iterative method: 86 iterations in 0.32 seconds (average 0.001488, setup 0.19)

Value in the initial state: 77.17022643288566

Time for model checking: 1.479 seconds.

Result: 77.17022643288566 (value in the initial state)

---------------------------------------------------------------------

Note: There were 16 warnings during computation.

